code/rtl/neuro_int/neuron/neuron_tb.vcd
$date
	Fri Feb 07 09:25:07 2025
$end
$version
	Icarus Verilog
$end
$timescale
	100ps
$end
$scope module Neuron_tb $end
$var reg 1 ! clk $end
$var reg 8 " data [7:0] $end
$var reg 1 # load_data $end
$var reg 1 $ rst $end
$var reg 10 % src_addr_in [9:0] $end
$var reg 1 & time_step $end
$scope module neuron $end
$var wire 1 ! clk $end
$var wire 8 ' data [7:0] $end
$var wire 32 ( decayed_potential [31:0] $end
$var wire 1 # load_data $end
$var wire 1 $ rst $end
$var wire 10 ) src_addr_in [9:0] $end
$var wire 1 & time_step $end
$var wire 1 * weight_load $end
$var wire 32 + weight_in [31:0] $end
$var wire 32 , value [31:0] $end
$var wire 10 - src_addr [9:0] $end
$var wire 1 . spike $end
$var wire 32 / output_potential_decay [31:0] $end
$var wire 32 0 new_potential [31:0] $end
$var wire 1 1 neuron_mode $end
$var wire 1 2 load $end
$var wire 32 3 input_weight [31:0] $end
$var wire 3 4 init_mode_adder [2:0] $end
$var wire 1 5 init_mode_acc $end
$var wire 32 6 final_potential [31:0] $end
$var wire 3 7 decay_mode [2:0] $end
$var wire 1 8 decay_load $end
$var wire 10 9 address [9:0] $end
$var wire 2 : adder_model [1:0] $end
$var wire 1 ; adder_load $end
$var wire 1 < adder_done $end
$var wire 32 = accumulated_out [31:0] $end
$scope module acc $end
$var wire 1 ! clk $end
$var wire 1 * load $end
$var wire 1 $ rst $end
$var wire 10 > src_addr [9:0] $end
$var wire 1 & time_step $end
$var wire 32 ? weight_in [31:0] $end
$var wire 1 5 mode $end
$var reg 1 @ acc_send $end
$var reg 32 A accumulated_out [31:0] $end
$var reg 32 B accumulated_reg [31:0] $end
$var reg 5 C write_ptr [4:0] $end
$var integer 32 D i [31:0] $end
$upscope $end
$scope module adder $end
$var wire 1 ! clk $end
$var wire 32 E decayed_potential [31:0] $end
$var wire 32 F input_weight [31:0] $end
$var wire 1 ; load $end
$var wire 1 $ rst $end
$var wire 1 & time_step $end
$var wire 2 G model [1:0] $end
$var wire 3 H init_mode [2:0] $end
$var wire 32 I bv_u [31:0] $end
$var wire 1 J bv_done $end
$var wire 64 K bv [63:0] $end
$var wire 1 L abv_done $end
$var wire 64 M a_bv_u [63:0] $end
$var reg 32 N a [31:0] $end
$var reg 1 O abv_start $end
$var reg 1 P adder_send $end
$var reg 1 Q adder_start $end
$var reg 32 R b [31:0] $end
$var reg 1 S bv_start $end
$var reg 32 T c [31:0] $end
$var reg 1 U clear_mul $end
$var reg 32 V d [31:0] $end
$var reg 1 < done $end
$var reg 32 W final_potential [31:0] $end
$var reg 1 . spike $end
$var reg 32 X u [31:0] $end
$var reg 32 Y v_threshold [31:0] $end
$var reg 32 Z weight_added [31:0] $end
$scope module multIzhiBV $end
$var wire 32 [ A [31:0] $end
$var wire 32 \ B [31:0] $end
$var wire 1 ! clk $end
$var wire 1 U rst $end
$var wire 1 S start $end
$var reg 6 ] count [5:0] $end
$var reg 1 J done $end
$var reg 32 ^ multiplicand [31:0] $end
$var reg 32 _ multiplier [31:0] $end
$var reg 64 ` product [63:0] $end
$var reg 64 a result [63:0] $end
$var reg 1 b running $end
$upscope $end
$scope module multIzhiaBVu $end
$var wire 32 c A [31:0] $end
$var wire 32 d B [31:0] $end
$var wire 1 ! clk $end
$var wire 1 U rst $end
$var wire 1 O start $end
$var reg 6 e count [5:0] $end
$var reg 1 L done $end
$var reg 32 f multiplicand [31:0] $end
$var reg 32 g multiplier [31:0] $end
$var reg 64 h product [63:0] $end
$var reg 64 i result [63:0] $end
$var reg 1 j running $end
$upscope $end
$upscope $end
$scope module controller $end
$var wire 1 ! clk $end
$var wire 8 k data [7:0] $end
$var wire 1 # load_data $end
$var wire 1 $ rst $end
$var reg 2 l adder_model [1:0] $end
$var reg 10 m address [9:0] $end
$var reg 2 n buffer_mode [1:0] $end
$var reg 2 o buffer_status [1:0] $end
$var reg 8 p controller_mode [7:0] $end
$var reg 2 q controller_status [1:0] $end
$var reg 1 r data_ready $end
$var reg 3 s decay_mode [2:0] $end
$var reg 1 5 init_mode_acc $end
$var reg 3 t init_mode_adder [2:0] $end
$var reg 1 2 load $end
$var reg 1 1 neuron_mode $end
$var reg 32 u value [31:0] $end
$upscope $end
$scope module decay $end
$var wire 1 ! clk $end
$var wire 1 8 load $end
$var wire 3 v mode [2:0] $end
$var wire 32 w new_potential [31:0] $end
$var wire 1 $ rst $end
$var wire 1 & time_step $end
$var wire 1 x v_squared_done $end
$var wire 64 y v_squared [63:0] $end
$var wire 32 z output_lif8 [31:0] $end
$var wire 32 { output_lif4 [31:0] $end
$var wire 32 | output_lif2 [31:0] $end
$var wire 64 } izi_second_term [63:0] $end
$var wire 32 ~ izi_first_term [31:0] $end
$var wire 1 !" izi2_done $end
$var wire 1 "" izi1_done $end
$var wire 1 #" done_lif8 $end
$var wire 1 $" done_lif4 $end
$var wire 1 %" done_lif2 $end
$var reg 1 &" decay_send $end
$var reg 32 '" membrane_potential [31:0] $end
$var reg 32 (" output_potential_decay [31:0] $end
$var reg 1 )" start $end
$scope module izi1 $end
$var wire 1 ! clk $end
$var wire 32 *" data_in [31:0] $end
$var wire 2 +" mode [1:0] $end
$var wire 1 & rst $end
$var wire 5 ," shift_amount [4:0] $end
$var wire 1 x start $end
$var reg 5 -" count [4:0] $end
$var reg 32 ." data_out [31:0] $end
$var reg 1 "" done $end
$var reg 1 /" running $end
$var reg 32 0" shift_reg [31:0] $end
$upscope $end
$scope module izi2 $end
$var wire 32 1" A [31:0] $end
$var wire 32 2" B [31:0] $end
$var wire 1 ! clk $end
$var wire 1 & rst $end
$var wire 1 )" start $end
$var reg 6 3" count [5:0] $end
$var reg 1 !" done $end
$var reg 32 4" multiplicand [31:0] $end
$var reg 32 5" multiplier [31:0] $end
$var reg 64 6" product [63:0] $end
$var reg 64 7" result [63:0] $end
$var reg 1 8" running $end
$upscope $end
$scope module lif2 $end
$var wire 1 ! clk $end
$var wire 32 9" data_in [31:0] $end
$var wire 2 :" mode [1:0] $end
$var wire 1 & rst $end
$var wire 5 ;" shift_amount [4:0] $end
$var wire 1 )" start $end
$var reg 5 <" count [4:0] $end
$var reg 32 =" data_out [31:0] $end
$var reg 1 %" done $end
$var reg 1 >" running $end
$var reg 32 ?" shift_reg [31:0] $end
$upscope $end
$scope module lif4 $end
$var wire 1 ! clk $end
$var wire 32 @" data_in [31:0] $end
$var wire 2 A" mode [1:0] $end
$var wire 1 & rst $end
$var wire 5 B" shift_amount [4:0] $end
$var wire 1 )" start $end
$var reg 5 C" count [4:0] $end
$var reg 32 D" data_out [31:0] $end
$var reg 1 $" done $end
$var reg 1 E" running $end
$var reg 32 F" shift_reg [31:0] $end
$upscope $end
$scope module lif8 $end
$var wire 1 ! clk $end
$var wire 32 G" data_in [31:0] $end
$var wire 2 H" mode [1:0] $end
$var wire 1 & rst $end
$var wire 5 I" shift_amount [4:0] $end
$var wire 1 )" start $end
$var reg 5 J" count [4:0] $end
$var reg 32 K" data_out [31:0] $end
$var reg 1 #" done $end
$var reg 1 L" running $end
$var reg 32 M" shift_reg [31:0] $end
$upscope $end
$scope module v_squared_mul $end
$var wire 32 N" A [31:0] $end
$var wire 32 O" B [31:0] $end
$var wire 1 ! clk $end
$var wire 1 & rst $end
$var wire 1 )" start $end
$var reg 6 P" count [5:0] $end
$var reg 1 x done $end
$var reg 32 Q" multiplicand [31:0] $end
$var reg 32 R" multiplier [31:0] $end
$var reg 64 S" product [63:0] $end
$var reg 64 T" result [63:0] $end
$var reg 1 U" running $end
$upscope $end
$upscope $end
$upscope $end
$upscope $end
$enddefinitions $end
$comment Show the parameter values. $end
$dumpall
$end
#0
$dumpvars
xU"
bx T"
bx S"
bx R"
bx Q"
bx P"
bx O"
bx N"
bx M"
xL"
bx K"
bx J"
b11 I"
b1 H"
bx G"
bx F"
xE"
bx D"
bx C"
b10 B"
b1 A"
bx @"
bx ?"
x>"
bx ="
bx <"
b1 ;"
b1 :"
bx 9"
x8"
bx 7"
bx 6"
bx 5"
bx 4"
bx 3"
b101 2"
bx 1"
bx 0"
x/"
bx ."
bx -"
b11 ,"
b1 +"
bx *"
x)"
bx ("
bx '"
x&"
x%"
x$"
x#"
x""
x!"
bx ~
bx }
bx |
bx {
bx z
bx y
xx
bx w
bx v
bx u
bx t
bx s
xr
bx q
bx p
bx o
bx n
bx m
bx l
b0 k
xj
bx i
bx h
bx g
bx f
bx e
bx d
bx c
xb
bx a
bx `
bx _
bx ^
bx ]
bx \
bx [
bx Z
bx Y
bx X
bx W
bx V
xU
bx T
xS
bx R
xQ
xP
xO
bx N
bx M
xL
bx K
xJ
bx I
bx H
bx G
bx F
bx E
bx D
bx C
bx B
bx A
x@
bx ?
bx >
bx =
x<
x;
bx :
bx 9
x8
bx 7
bx 6
x5
bx 4
bx 3
x2
x1
bx 0
bx /
x.
bx -
bx ,
bx +
x*
b0 )
bx (
b0 '
0&
b0 %
0$
0#
b0 "
0!
$end
#50
1!
#100
0!
1$
#150
b0 3
b0 F
0;
b0 0
b0 w
b0 +
b0 ?
b0 -
b0 >
08
0*
b0 Z
b0 X
b0 Y
b0 V
b0 T
b0 R
b0 [
b0 N
b0 c
0.
0<
b0 6
b0 W
0)"
0&"
b0 (
b0 E
b0 \
b0 /
b0 ("
b0 '"
b0 1"
b0 9"
b0 @"
b0 G"
b0 N"
b0 O"
0@
b0 =
b0 A
b0 C
b0 B
11
0r
b0 n
b0 o
b0 q
b0 p
05
b0 4
b0 H
b0 t
b0 :
b0 G
b0 l
b0 7
b0 s
b0 v
b0 ,
b0 u
b0 9
b0 m
02
b10000 D
1!
#200
b10000 D
1!
1$
#250
0!
#300
b10000 D
1!
0$
#350
0!
#400
b10000 D
1!
#450
0!
#500
b10000 D
1!
#550
0!
#600
1r
1#
b10000 D
1!
b11111111 "
b11111111 '
b11111111 k
#650
0!
#700
0r
b1 q
b11111111 p
0#
b10000 D
1!
#750
0!
#800
b10000 D
1!
#850
0!
#900
b10000 D
1!
#950
0!
#1000
1r
1#
b10000 D
1!
b111000 "
b111000 '
b111000 k
#1050
0!
#1100
0r
b1 o
0#
b10000 D
1!
#1150
0!
#1200
b10000 D
1!
#1250
0!
#1300
b10000 D
1!
#1350
0!
#1400
1r
1#
b10000 D
1!
b1 "
b1 '
b1 k
#1450
0!
#1500
0r
b1 n
15
b111 4
b111 H
b111 t
b0 o
0#
b10000 D
b10 q
1!
#1550
0!
#1600
1!
#1650
0!
#1700
1!
#1750
0!
#1800
1r
1#
1!
#1850
0!
#1900
0r
b1 o
0#
1!
#1950
0!
#2000
1!
#2050
0!
#2100
1!
#2150
0!
#2200
1r
1#
1!
b0 "
b0 '
b0 k
#2250
0!
#2300
b1 -
b1 >
0r
b10 n
b1 9
b1 m
b0 o
0#
1!
#2350
0!
#2400
1!
#2450
0!
#2500
1!
#2550
0!
#2600
1r
1#
1!
b11 "
b11 '
b11 k
#2650
0!
#2700
0r
b1 o
0#
1!
#2750
0!
#2800
1!
#2850
0!
#2900
1!
#2950
0!
#3000
1r
1#
1!
b100 "
b100 '
b100 k
#3050
0!
#3100
0r
b10 o
0#
1!
#3150
0!
#3200
1!
#3250
0!
#3300
1!
#3350
0!
#3400
1r
1#
1!
b101 "
b101 '
b101 k
#3450
0!
#3500
0r
b11 o
0#
1!
#3550
0!
#3600
1!
#3650
0!
#3700
1!
#3750
0!
#3800
1r
1#
1!
b0 "
b0 '
b0 k
#3850
0!
#3900
b1010000010000000011 +
b1010000010000000011 ?
0r
b0 q
b0 n
b1010000010000000011 ,
b1010000010000000011 u
b0 o
0#
1!
#3950
0!
#4000
1!
#4050
0!
#4100
1!
#4150
0!
#4200
1r
1#
1!
#4250
0!
#4300
b1 C
1*
12
0#
1!
#4350
0!
#4400
b0 +
b0 ?
b0 -
b0 >
0r
b0 ,
b0 u
b0 9
b0 m
01
12
1!
#4450
0!
#4500
0*
02
1!
#4550
0!
#4600
1!
#4650
0!
#4700
1!
#4750
0!
#4800
1!
#4850
0!
#4900
1!
#4950
0!
#5000
1!
#5050
0!
#5100
1r
1#
1!
b11111111 "
b11111111 '
b11111111 k
#5150
0!
#5200
0r
b1 q
11
0#
1!
#5250
0!
#5300
1!
#5350
0!
#5400
1!
#5450
0!
#5500
1r
1#
1!
b111000 "
b111000 '
b111000 k
#5550
0!
#5600
0r
b1 o
0#
1!
#5650
0!
#5700
1!
#5750
0!
#5800
1!
#5850
0!
#5900
1r
1#
1!
b1 "
b1 '
b1 k
#5950
0!
#6000
0r
b1 n
b0 o
0#
b10 q
1!
#6050
0!
#6100
1!
#6150
0!
#6200
1!
#6250
0!
#6300
1r
1#
1!
b10 "
b10 '
b10 k
#6350
0!
#6400
0r
b1 o
0#
1!
#6450
0!
#6500
1!
#6550
0!
#6600
1!
#6650
0!
#6700
1r
1#
1!
b0 "
b0 '
b0 k
#6750
0!
#6800
b10 -
b10 >
0r
b10 n
b10 9
b10 m
b0 o
0#
1!
#6850
0!
#6900
1!
#6950
0!
#7000
1!
#7050
0!
#7100
1r
1#
1!
b11 "
b11 '
b11 k
#7150
0!
#7200
0r
b1 o
0#
1!
#7250
0!
#7300
1!
#7350
0!
#7400
1!
#7450
0!
#7500
1r
1#
1!
b100 "
b100 '
b100 k
#7550
0!
#7600
0r
b10 o
0#
1!
#7650
0!
#7700
1!
#7750
0!
#7800
1!
#7850
0!
#7900
1r
1#
1!
b0 "
b0 '
b0 k
#7950
0!
#8000
0r
b11 o
0#
1!
#8050
0!
#8100
1!
#8150
0!
#8200
1!
#8250
0!
#8300
1r
1#
1!
#8350
0!
#8400
b10000000011 +
b10000000011 ?
0r
b0 q
b0 n
b10000000011 ,
b10000000011 u
b0 o
0#
1!
#8450
0!
#8500
1!
#8550
0!
#8600
1!
#8650
0!
#8700
1r
1#
1!
#8750
0!
#8800
b10 C
1*
12
0#
1!
#8850
0!
#8900
b0 +
b0 ?
b0 -
b0 >
0r
b0 ,
b0 u
b0 9
b0 m
01
12
1!
#8950
0!
#9000
0*
02
1!
#9050
0!
#9100
1!
#9150
0!
#9200
1!
#9250
0!
#9300
1!
#9350
0!
#9400
1!
#9450
0!
#9500
1!
#9550
0!
#9600
1r
1#
1!
b11111111 "
b11111111 '
b11111111 k
#9650
0!
#9700
0r
b1 q
11
0#
1!
#9750
0!
#9800
1!
#9850
0!
#9900
1!
#9950
0!
#10000
1r
1#
1!
b111000 "
b111000 '
b111000 k
#10050
0!
#10100
0r
b1 o
0#
1!
#10150
0!
#10200
1!
#10250
0!
#10300
1!
#10350
0!
#10400
1r
1#
1!
b1 "
b1 '
b1 k
#10450
0!
#10500
0r
b1 n
b0 o
0#
b10 q
1!
#10550
0!
#10600
1!
#10650
0!
#10700
1!
#10750
0!
#10800
1r
1#
1!
b11 "
b11 '
b11 k
#10850
0!
#10900
0r
b1 o
0#
1!
#10950
0!
#11000
1!
#11050
0!
#11100
1!
#11150
0!
#11200
1r
1#
1!
b0 "
b0 '
b0 k
#11250
0!
#11300
b11 -
b11 >
0r
b10 n
b11 9
b11 m
b0 o
0#
1!
#11350
0!
#11400
1!
#11450
0!
#11500
1!
#11550
0!
#11600
1r
1#
1!
b11 "
b11 '
b11 k
#11650
0!
#11700
0r
b1 o
0#
1!
#11750
0!
#11800
1!
#11850
0!
#11900
1!
#11950
0!
#12000
1r
1#
1!
b100 "
b100 '
b100 k
#12050
0!
#12100
0r
b10 o
0#
1!
#12150
0!
#12200
1!
#12250
0!
#12300
1!
#12350
0!
#12400
1r
1#
1!
b1 "
b1 '
b1 k
#12450
0!
#12500
0r
b11 o
0#
1!
#12550
0!
#12600
1!
#12650
0!
#12700
1!
#12750
0!
#12800
1r
1#
1!
b0 "
b0 '
b0 k
#12850
0!
#12900
b10000010000000011 +
b10000010000000011 ?
0r
b0 q
b0 n
b10000010000000011 ,
b10000010000000011 u
b0 o
0#
1!
#12950
0!
#13000
1!
#13050
0!
#13100
1!
#13150
0!
#13200
1r
1#
1!
#13250
0!
#13300
b11 C
1*
12
0#
1!
#13350
0!
#13400
b0 +
b0 ?
b0 -
b0 >
0r
b0 ,
b0 u
b0 9
b0 m
01
12
1!
#13450
0!
#13500
0*
02
1!
#13550
0!
#13600
1!
#13650
0!
#13700
1!
#13750
0!
#13800
1!
#13850
0!
#13900
1!
#13950
0!
#14000
1!
#14050
0!
#14100
1r
1#
1!
b11111110 "
b11111110 '
b11111110 k
#14150
0!
#14200
0r
b1 q
b11111110 p
11
0#
1!
#14250
0!
#14300
1!
#14350
0!
#14400
1!
#14450
0!
#14500
1r
1#
1!
b111111 "
b111111 '
b111111 k
#14550
0!
#14600
0r
b1 o
0#
1!
#14650
0!
#14700
1!
#14750
0!
#14800
1!
#14850
0!
#14900
1r
1#
1!
b0 "
b0 '
b0 k
#14950
0!
#15000
0r
b10 n
05
b111 7
b111 s
b111 v
b0 o
0#
b10 q
1!
#15050
0!
#15100
b10000 D
1!
#15150
0!
#15200
b10000 D
1!
#15250
0!
#15300
1r
1#
b10000 D
1!
b10101111 "
b10101111 '
b10101111 k
#15350
0!
#15400
0r
b1 o
0#
b10000 D
1!
#15450
0!
#15500
b10000 D
1!
#15550
0!
#15600
b10000 D
1!
#15650
0!
#15700
1r
1#
b10000 D
1!
b10 "
b10 '
b10 k
#15750
0!
#15800
0r
b10 o
0#
b10000 D
1!
#15850
0!
#15900
b10000 D
1!
#15950
0!
#16000
b10000 D
1!
#16050
0!
#16100
1r
1#
b10000 D
1!
b11 "
b11 '
b11 k
#16150
0!
#16200
0r
b11 o
0#
b10000 D
1!
#16250
0!
#16300
b10000 D
1!
#16350
0!
#16400
b10000 D
1!
#16450
0!
#16500
1r
1#
b10000 D
1!
b100 "
b100 '
b100 k
#16550
0!
#16600
b100000000110000001010101111 0
b100000000110000001010101111 w
0r
b0 q
b0 n
b100000000110000001010101111 ,
b100000000110000001010101111 u
b0 o
0#
b10000 D
1!
#16650
0!
#16700
b10000 D
1!
#16750
0!
#16800
b10000 D
1!
#16850
0!
#16900
1r
1#
b10000 D
1!
b0 "
b0 '
b0 k
#16950
0!
#17000
b100000000110000001010101111 '"
b100000000110000001010101111 1"
b100000000110000001010101111 9"
b100000000110000001010101111 @"
b100000000110000001010101111 G"
b100000000110000001010101111 N"
b100000000110000001010101111 O"
18
12
0#
b10000 D
1!
#17050
0!
#17100
b0 0
b0 w
0r
b0 ,
b0 u
01
12
b10000 D
1!
#17150
0!
#17200
08
02
b10000 D
1!
#17250
0!
#17300
b10000 D
1!
#17350
0!
#17400
b10000 D
1!
#17450
0!
#17500
b10000 D
1!
#17550
0!
#17600
b10000 D
1!
#17650
0!
#17700
b10000 D
1!
#17750
0!
#17800
1r
1#
b10000 D
1!
b11111110 "
b11111110 '
b11111110 k
#17850
0!
#17900
0r
b1 q
11
0#
b10000 D
1!
#17950
0!
#18000
b10000 D
1!
#18050
0!
#18100
b10000 D
1!
#18150
0!
#18200
1r
1#
b10000 D
1!
b1000 "
b1000 '
b1000 k
#18250
0!
#18300
0r
b1 o
0#
b10000 D
1!
#18350
0!
#18400
b10000 D
1!
#18450
0!
#18500
b10000 D
1!
#18550
0!
#18600
1r
1#
b10000 D
1!
b0 "
b0 '
b0 k
#18650
0!
#18700
0r
b10 n
b1 4
b1 H
b1 t
b0 7
b0 s
b0 v
b0 o
0#
b10 q
b10000 D
1!
#18750
0!
#18800
b10000 D
1!
#18850
0!
#18900
b10000 D
1!
#18950
0!
#19000
1r
1#
b10000 D
1!
b10101111 "
b10101111 '
b10101111 k
#19050
0!
#19100
0r
b1 o
0#
b10000 D
1!
#19150
0!
#19200
b10000 D
1!
#19250
0!
#19300
b10000 D
1!
#19350
0!
#19400
1r
1#
b10000 D
1!
b10 "
b10 '
b10 k
#19450
0!
#19500
0r
b10 o
0#
b10000 D
1!
#19550
0!
#19600
b10000 D
1!
#19650
0!
#19700
b10000 D
1!
#19750
0!
#19800
1r
1#
b10000 D
1!
b101 "
b101 '
b101 k
#19850
0!
#19900
0r
b11 o
0#
b10000 D
1!
#19950
0!
#20000
b10000 D
1!
#20050
0!
#20100
b10000 D
1!
#20150
0!
#20200
1r
1#
b10000 D
1!
b100100 "
b100100 '
b100100 k
#20250
0!
#20300
b100100000001010000001010101111 3
b100100000001010000001010101111 F
0r
b0 q
b0 n
b100100000001010000001010101111 ,
b100100000001010000001010101111 u
b0 o
0#
b10000 D
1!
#20350
0!
#20400
b10000 D
1!
#20450
0!
#20500
b10000 D
1!
#20550
0!
#20600
1r
1#
b10000 D
1!
b0 "
b0 '
b0 k
#20650
0!
#20700
b100100000001010000001010101111 N
b100100000001010000001010101111 c
1;
12
0#
b10000 D
1!
#20750
0!
#20800
b0 3
b0 F
0r
b0 ,
b0 u
01
12
b10000 D
1!
#20850
0!
#20900
0;
02
b10000 D
1!
#20950
0!
#21000
b10000 D
1!
#21050
0!
#21100
b10000 D
1!
#21150
0!
#21200
b10000 D
1!
#21250
0!
#21300
b10000 D
1!
#21350
0!
#21400
b10000 D
1!
#21450
0!
#21500
1r
1#
b10000 D
1!
b11111110 "
b11111110 '
b11111110 k
#21550
0!
#21600
0r
b1 q
11
0#
b10000 D
1!
#21650
0!
#21700
b10000 D
1!
#21750
0!
#21800
b10000 D
1!
#21850
0!
#21900
1r
1#
b10000 D
1!
b10000 "
b10000 '
b10000 k
#21950
0!
#22000
0r
b1 o
0#
b10000 D
1!
#22050
0!
#22100
b10000 D
1!
#22150
0!
#22200
b10000 D
1!
#22250
0!
#22300
1r
1#
b10000 D
1!
b0 "
b0 '
b0 k
#22350
0!
#22400
0r
b10 n
b10 4
b10 H
b10 t
b0 o
0#
b10 q
b10000 D
1!
#22450
0!
#22500
b10000 D
1!
#22550
0!
#22600
b10000 D
1!
#22650
0!
#22700
1r
1#
b10000 D
1!
b10101111 "
b10101111 '
b10101111 k
#22750
0!
#22800
0r
b1 o
0#
b10000 D
1!
#22850
0!
#22900
b10000 D
1!
#22950
0!
#23000
b10000 D
1!
#23050
0!
#23100
1r
1#
b10000 D
1!
b100010 "
b100010 '
b100010 k
#23150
0!
#23200
0r
b10 o
0#
b10000 D
1!
#23250
0!
#23300
b10000 D
1!
#23350
0!
#23400
b10000 D
1!
#23450
0!
#23500
1r
1#
b10000 D
1!
b11 "
b11 '
b11 k
#23550
0!
#23600
0r
b11 o
0#
b10000 D
1!
#23650
0!
#23700
b10000 D
1!
#23750
0!
#23800
b10000 D
1!
#23850
0!
#23900
1r
1#
b10000 D
1!
b100100 "
b100100 '
b100100 k
#23950
0!
#24000
b100100000000110010001010101111 3
b100100000000110010001010101111 F
0r
b0 q
b0 n
b100100000000110010001010101111 ,
b100100000000110010001010101111 u
b0 o
0#
b10000 D
1!
#24050
0!
#24100
b10000 D
1!
#24150
0!
#24200
b10000 D
1!
#24250
0!
#24300
1r
1#
b10000 D
1!
b0 "
b0 '
b0 k
#24350
0!
#24400
b100100000000110010001010101111 R
b100100000000110010001010101111 [
1;
12
0#
b10000 D
1!
#24450
0!
#24500
b0 3
b0 F
0r
b0 ,
b0 u
01
12
b10000 D
1!
#24550
0!
#24600
0;
02
b10000 D
1!
#24650
0!
#24700
b10000 D
1!
#24750
0!
#24800
b10000 D
1!
#24850
0!
#24900
b10000 D
1!
#24950
0!
#25000
b10000 D
1!
#25050
0!
#25100
b10000 D
1!
#25150
0!
#25200
1r
1#
b10000 D
1!
b11111110 "
b11111110 '
b11111110 k
#25250
0!
#25300
0r
b1 q
11
0#
b10000 D
1!
#25350
0!
#25400
b10000 D
1!
#25450
0!
#25500
b10000 D
1!
#25550
0!
#25600
1r
1#
b10000 D
1!
b11000 "
b11000 '
b11000 k
#25650
0!
#25700
0r
b1 o
0#
b10000 D
1!
#25750
0!
#25800
b10000 D
1!
#25850
0!
#25900
b10000 D
1!
#25950
0!
#26000
1r
1#
b10000 D
1!
b0 "
b0 '
b0 k
#26050
0!
#26100
0r
b10 n
b11 4
b11 H
b11 t
b0 o
0#
b10 q
b10000 D
1!
#26150
0!
#26200
b10000 D
1!
#26250
0!
#26300
b10000 D
1!
#26350
0!
#26400
1r
1#
b10000 D
1!
b10101111 "
b10101111 '
b10101111 k
#26450
0!
#26500
0r
b1 o
0#
b10000 D
1!
#26550
0!
#26600
b10000 D
1!
#26650
0!
#26700
b10000 D
1!
#26750
0!
#26800
1r
1#
b10000 D
1!
b100010 "
b100010 '
b100010 k
#26850
0!
#26900
0r
b10 o
0#
b10000 D
1!
#26950
0!
#27000
b10000 D
1!
#27050
0!
#27100
b10000 D
1!
#27150
0!
#27200
1r
1#
b10000 D
1!
b11 "
b11 '
b11 k
#27250
0!
#27300
0r
b11 o
0#
b10000 D
1!
#27350
0!
#27400
b10000 D
1!
#27450
0!
#27500
b10000 D
1!
#27550
0!
#27600
1r
1#
b10000 D
1!
b100100 "
b100100 '
b100100 k
#27650
0!
#27700
b100100000000110010001010101111 3
b100100000000110010001010101111 F
0r
b0 q
b0 n
b100100000000110010001010101111 ,
b100100000000110010001010101111 u
b0 o
0#
b10000 D
1!
#27750
0!
#27800
b10000 D
1!
#27850
0!
#27900
b10000 D
1!
#27950
0!
#28000
1r
1#
b10000 D
1!
b0 "
b0 '
b0 k
#28050
0!
#28100
b100100000000110010001010101111 T
1;
12
0#
b10000 D
1!
#28150
0!
#28200
b0 3
b0 F
0r
b0 ,
b0 u
01
12
b10000 D
1!
#28250
0!
#28300
0;
02
b10000 D
1!
#28350
0!
#28400
b10000 D
1!
#28450
0!
#28500
b10000 D
1!
#28550
0!
#28600
b10000 D
1!
#28650
0!
#28700
b10000 D
1!
#28750
0!
#28800
b10000 D
1!
#28850
0!
#28900
1r
1#
b10000 D
1!
b11111110 "
b11111110 '
b11111110 k
#28950
0!
#29000
0r
b1 q
11
0#
b10000 D
1!
#29050
0!
#29100
b10000 D
1!
#29150
0!
#29200
b10000 D
1!
#29250
0!
#29300
1r
1#
b10000 D
1!
b100000 "
b100000 '
b100000 k
#29350
0!
#29400
0r
b1 o
0#
b10000 D
1!
#29450
0!
#29500
b10000 D
1!
#29550
0!
#29600
b10000 D
1!
#29650
0!
#29700
1r
1#
b10000 D
1!
b0 "
b0 '
b0 k
#29750
0!
#29800
0r
b10 n
b100 4
b100 H
b100 t
b0 o
0#
b10 q
b10000 D
1!
#29850
0!
#29900
b10000 D
1!
#29950
0!
#30000
b10000 D
1!
#30050
0!
#30100
1r
1#
b10000 D
1!
b10000111 "
b10000111 '
b10000111 k
#30150
0!
#30200
0r
b1 o
0#
b10000 D
1!
#30250
0!
#30300
b10000 D
1!
#30350
0!
#30400
b10000 D
1!
#30450
0!
#30500
1r
1#
b10000 D
1!
b10 "
b10 '
b10 k
#30550
0!
#30600
0r
b10 o
0#
b10000 D
1!
#30650
0!
#30700
b10000 D
1!
#30750
0!
#30800
b10000 D
1!
#30850
0!
#30900
1r
1#
b10000 D
1!
b11 "
b11 '
b11 k
#30950
0!
#31000
0r
b11 o
0#
b10000 D
1!
#31050
0!
#31100
b10000 D
1!
#31150
0!
#31200
b10000 D
1!
#31250
0!
#31300
1r
1#
b10000 D
1!
b100100 "
b100100 '
b100100 k
#31350
0!
#31400
b100100000000110000001010000111 3
b100100000000110000001010000111 F
0r
b0 q
b0 n
b100100000000110000001010000111 ,
b100100000000110000001010000111 u
b0 o
0#
b10000 D
1!
#31450
0!
#31500
b10000 D
1!
#31550
0!
#31600
b10000 D
1!
#31650
0!
#31700
1r
1#
b10000 D
1!
b0 "
b0 '
b0 k
#31750
0!
#31800
b100100000000110000001010000111 V
1;
12
0#
b10000 D
1!
#31850
0!
#31900
b0 3
b0 F
0r
b0 ,
b0 u
01
12
b10000 D
1!
#31950
0!
#32000
0;
02
b10000 D
1!
#32050
0!
#32100
b10000 D
1!
#32150
0!
#32200
b10000 D
1!
#32250
0!
#32300
b10000 D
1!
#32350
0!
#32400
b10000 D
1!
#32450
0!
#32500
b10000 D
1!
#32550
0!
#32600
1r
1#
b10000 D
1!
b11111110 "
b11111110 '
b11111110 k
#32650
0!
#32700
0r
b1 q
11
0#
b10000 D
1!
#32750
0!
#32800
b10000 D
1!
#32850
0!
#32900
b10000 D
1!
#32950
0!
#33000
1r
1#
b10000 D
1!
b101000 "
b101000 '
b101000 k
#33050
0!
#33100
0r
b1 o
0#
b10000 D
1!
#33150
0!
#33200
b10000 D
1!
#33250
0!
#33300
b10000 D
1!
#33350
0!
#33400
1r
1#
b10000 D
1!
b0 "
b0 '
b0 k
#33450
0!
#33500
0r
b10 n
b101 4
b101 H
b101 t
b0 o
0#
b10 q
b10000 D
1!
#33550
0!
#33600
b10000 D
1!
#33650
0!
#33700
b10000 D
1!
#33750
0!
#33800
1r
1#
b10000 D
1!
b10101111 "
b10101111 '
b10101111 k
#33850
0!
#33900
0r
b1 o
0#
b10000 D
1!
#33950
0!
#34000
b10000 D
1!
#34050
0!
#34100
b10000 D
1!
#34150
0!
#34200
1r
1#
b10000 D
1!
b10 "
b10 '
b10 k
#34250
0!
#34300
0r
b10 o
0#
b10000 D
1!
#34350
0!
#34400
b10000 D
1!
#34450
0!
#34500
b10000 D
1!
#34550
0!
#34600
1r
1#
b10000 D
1!
b1011011 "
b1011011 '
b1011011 k
#34650
0!
#34700
0r
b11 o
0#
b10000 D
1!
#34750
0!
#34800
b10000 D
1!
#34850
0!
#34900
b10000 D
1!
#34950
0!
#35000
1r
1#
b10000 D
1!
b0 "
b0 '
b0 k
#35050
0!
#35100
b10110110000001010101111 3
b10110110000001010101111 F
0r
b0 q
b0 n
b10110110000001010101111 ,
b10110110000001010101111 u
b0 o
0#
b10000 D
1!
#35150
0!
#35200
b10000 D
1!
#35250
0!
#35300
b10000 D
1!
#35350
0!
