code/rtl/neuro_int/neuron/neuron_tb.vcd
$date
	Sun Feb 09 21:06:21 2025
$end
$version
	Icarus Verilog
$end
$timescale
	100ps
$end
$scope module neuron_tb $end
$var reg 1 ! clk $end
$var reg 8 " data [7:0] $end
$var reg 1 # load_data $end
$var reg 1 $ rst $end
$var reg 10 % src_addr_in [9:0] $end
$var reg 1 & time_step $end
$scope module neuron $end
$var wire 1 ! clk $end
$var wire 8 ' data [7:0] $end
$var wire 32 ( decayed_potential [31:0] $end
$var wire 1 # load_data $end
$var wire 1 $ rst $end
$var wire 10 ) src_addr_in [9:0] $end
$var wire 1 & time_step $end
$var wire 1 * weight_load $end
$var wire 32 + weight_in [31:0] $end
$var wire 32 , value [31:0] $end
$var wire 10 - src_addr [9:0] $end
$var wire 1 . spike $end
$var wire 32 / output_potential_decay [31:0] $end
$var wire 32 0 new_potential [31:0] $end
$var wire 1 1 neuron_mode $end
$var wire 1 2 load $end
$var wire 32 3 input_weight [31:0] $end
$var wire 3 4 init_mode_adder [2:0] $end
$var wire 1 5 init_mode_acc $end
$var wire 32 6 final_potential [31:0] $end
$var wire 3 7 decay_mode [2:0] $end
$var wire 1 8 decay_load $end
$var wire 10 9 address [9:0] $end
$var wire 2 : adder_model [1:0] $end
$var wire 1 ; adder_load $end
$var wire 1 < adder_done $end
$var wire 32 = accumulated_out [31:0] $end
$scope module acc $end
$var wire 1 ! clk $end
$var wire 1 * load $end
$var wire 1 $ rst $end
$var wire 10 > src_addr [9:0] $end
$var wire 1 & time_step $end
$var wire 32 ? weight_in [31:0] $end
$var wire 1 5 mode $end
$var reg 32 @ accumulated_out [31:0] $end
$var reg 32 A accumulated_reg [31:0] $end
$var reg 1 B prev_load $end
$var reg 1 C prev_time_step_val $end
$var reg 5 D write_ptr [4:0] $end
$var integer 32 E i [31:0] $end
$upscope $end
$scope module adder $end
$var wire 1 ! clk $end
$var wire 32 F decayed_potential [31:0] $end
$var wire 32 G input_weight [31:0] $end
$var wire 1 ; load $end
$var wire 1 $ rst $end
$var wire 1 & time_step $end
$var wire 2 H model [1:0] $end
$var wire 3 I init_mode [2:0] $end
$var wire 32 J bv_u [31:0] $end
$var wire 1 K bv_done $end
$var wire 64 L bv [63:0] $end
$var wire 1 M abv_done $end
$var wire 64 N a_bv_u [63:0] $end
$var reg 32 O a [31:0] $end
$var reg 1 P abv_start $end
$var reg 1 Q adder_send $end
$var reg 1 R adder_start $end
$var reg 32 S b [31:0] $end
$var reg 1 T bv_start $end
$var reg 32 U c [31:0] $end
$var reg 1 V clear_mul $end
$var reg 32 W d [31:0] $end
$var reg 1 < done $end
$var reg 32 X final_potential [31:0] $end
$var reg 1 Y prev_load $end
$var reg 1 Z prev_time_step $end
$var reg 1 . spike $end
$var reg 32 [ u [31:0] $end
$var reg 32 \ v_threshold [31:0] $end
$var reg 32 ] weight_added [31:0] $end
$scope module multIzhiBV $end
$var wire 32 ^ A [31:0] $end
$var wire 32 _ B [31:0] $end
$var wire 1 ! clk $end
$var wire 1 ` rst $end
$var wire 1 T start $end
$var reg 6 a count [5:0] $end
$var reg 1 K done $end
$var reg 32 b multiplicand [31:0] $end
$var reg 32 c multiplier [31:0] $end
$var reg 1 d prev_start $end
$var reg 64 e product [63:0] $end
$var reg 64 f result [63:0] $end
$var reg 1 g running $end
$upscope $end
$scope module multIzhiaBVu $end
$var wire 32 h A [31:0] $end
$var wire 32 i B [31:0] $end
$var wire 1 ! clk $end
$var wire 1 j rst $end
$var wire 1 P start $end
$var reg 6 k count [5:0] $end
$var reg 1 M done $end
$var reg 32 l multiplicand [31:0] $end
$var reg 32 m multiplier [31:0] $end
$var reg 1 n prev_start $end
$var reg 64 o product [63:0] $end
$var reg 64 p result [63:0] $end
$var reg 1 q running $end
$upscope $end
$upscope $end
$scope module controller $end
$var wire 1 ! clk $end
$var wire 8 r data [7:0] $end
$var wire 1 # load_data $end
$var wire 1 $ rst $end
$var reg 2 s adder_model [1:0] $end
$var reg 10 t address [9:0] $end
$var reg 2 u buffer_mode [1:0] $end
$var reg 2 v buffer_status [1:0] $end
$var reg 8 w controller_mode [7:0] $end
$var reg 2 x controller_status [1:0] $end
$var reg 1 y data_ready $end
$var reg 3 z decay_mode [2:0] $end
$var reg 1 5 init_mode_acc $end
$var reg 3 { init_mode_adder [2:0] $end
$var reg 1 2 load $end
$var reg 1 1 neuron_mode $end
$var reg 1 | prev_load_data $end
$var reg 32 } value [31:0] $end
$upscope $end
$scope module decay $end
$var wire 1 ! clk $end
$var wire 1 8 load $end
$var wire 3 ~ mode [2:0] $end
$var wire 32 !" new_potential [31:0] $end
$var wire 1 $ rst $end
$var wire 1 & time_step $end
$var wire 1 "" v_squared_done $end
$var wire 64 #" v_squared [63:0] $end
$var wire 32 $" output_lif8 [31:0] $end
$var wire 32 %" output_lif4 [31:0] $end
$var wire 32 &" output_lif2 [31:0] $end
$var wire 64 '" izi_second_term [63:0] $end
$var wire 32 (" izi_first_term [31:0] $end
$var wire 1 )" izi2_done $end
$var wire 1 *" izi1_done $end
$var wire 1 +" done_lif8 $end
$var wire 1 ," done_lif4 $end
$var wire 1 -" done_lif2 $end
$var reg 32 ." membrane_potential [31:0] $end
$var reg 32 /" output_potential_decay [31:0] $end
$var reg 1 0" prev_load $end
$var reg 1 1" prev_time_step $end
$var reg 1 2" start $end
$scope module izi1 $end
$var wire 1 ! clk $end
$var wire 32 3" data_in [31:0] $end
$var wire 2 4" mode [1:0] $end
$var wire 1 $ rst $end
$var wire 5 5" shift_amount [4:0] $end
$var wire 1 "" start $end
$var reg 5 6" count [4:0] $end
$var reg 32 7" data_out [31:0] $end
$var reg 1 *" done $end
$var reg 1 8" prev_start $end
$var reg 1 9" running $end
$var reg 32 :" shift_reg [31:0] $end
$upscope $end
$scope module izi2 $end
$var wire 32 ;" A [31:0] $end
$var wire 32 <" B [31:0] $end
$var wire 1 ! clk $end
$var wire 1 $ rst $end
$var wire 1 2" start $end
$var reg 6 =" count [5:0] $end
$var reg 1 )" done $end
$var reg 32 >" multiplicand [31:0] $end
$var reg 32 ?" multiplier [31:0] $end
$var reg 1 @" prev_start $end
$var reg 64 A" product [63:0] $end
$var reg 64 B" result [63:0] $end
$var reg 1 C" running $end
$upscope $end
$scope module lif2 $end
$var wire 1 ! clk $end
$var wire 32 D" data_in [31:0] $end
$var wire 2 E" mode [1:0] $end
$var wire 1 $ rst $end
$var wire 5 F" shift_amount [4:0] $end
$var wire 1 2" start $end
$var reg 5 G" count [4:0] $end
$var reg 32 H" data_out [31:0] $end
$var reg 1 -" done $end
$var reg 1 I" prev_start $end
$var reg 1 J" running $end
$var reg 32 K" shift_reg [31:0] $end
$upscope $end
$scope module lif4 $end
$var wire 1 ! clk $end
$var wire 32 L" data_in [31:0] $end
$var wire 2 M" mode [1:0] $end
$var wire 1 $ rst $end
$var wire 5 N" shift_amount [4:0] $end
$var wire 1 2" start $end
$var reg 5 O" count [4:0] $end
$var reg 32 P" data_out [31:0] $end
$var reg 1 ," done $end
$var reg 1 Q" prev_start $end
$var reg 1 R" running $end
$var reg 32 S" shift_reg [31:0] $end
$upscope $end
$scope module lif8 $end
$var wire 1 ! clk $end
$var wire 32 T" data_in [31:0] $end
$var wire 2 U" mode [1:0] $end
$var wire 1 $ rst $end
$var wire 5 V" shift_amount [4:0] $end
$var wire 1 2" start $end
$var reg 5 W" count [4:0] $end
$var reg 32 X" data_out [31:0] $end
$var reg 1 +" done $end
$var reg 1 Y" prev_start $end
$var reg 1 Z" running $end
$var reg 32 [" shift_reg [31:0] $end
$upscope $end
$scope module v_squared_mul $end
$var wire 32 \" A [31:0] $end
$var wire 32 ]" B [31:0] $end
$var wire 1 ! clk $end
$var wire 1 $ rst $end
$var wire 1 2" start $end
$var reg 6 ^" count [5:0] $end
$var reg 1 "" done $end
$var reg 32 _" multiplicand [31:0] $end
$var reg 32 `" multiplier [31:0] $end
$var reg 1 a" prev_start $end
$var reg 64 b" product [63:0] $end
$var reg 64 c" result [63:0] $end
$var reg 1 d" running $end
$upscope $end
$upscope $end
$upscope $end
$upscope $end
$enddefinitions $end
$comment Show the parameter values. $end
$dumpall
$end
#0
$dumpvars
xd"
bx c"
bx b"
xa"
bx `"
bx _"
bx ^"
bx ]"
bx \"
bx ["
xZ"
xY"
bx X"
bx W"
b11 V"
b1 U"
bx T"
bx S"
xR"
xQ"
bx P"
bx O"
b10 N"
b1 M"
bx L"
bx K"
xJ"
xI"
bx H"
bx G"
b1 F"
b1 E"
bx D"
xC"
bx B"
bx A"
x@"
bx ?"
bx >"
bx ="
b101 <"
bx ;"
bx :"
x9"
x8"
bx 7"
bx 6"
b11 5"
b1 4"
bx 3"
x2"
x1"
x0"
bx /"
bx ."
x-"
x,"
x+"
x*"
x)"
bx ("
bx '"
bx &"
bx %"
bx $"
bx #"
x""
bx !"
bx ~
bx }
x|
bx {
bx z
xy
bx x
bx w
bx v
bx u
bx t
bx s
b0 r
xq
bx p
bx o
xn
bx m
bx l
bx k
xj
bx i
bx h
xg
bx f
bx e
xd
bx c
bx b
bx a
x`
bx _
bx ^
bx ]
bx \
bx [
xZ
xY
bx X
bx W
xV
bx U
xT
bx S
xR
xQ
xP
bx O
bx N
xM
bx L
xK
bx J
bx I
bx H
bx G
bx F
bx E
bx D
xC
xB
bx A
bx @
bx ?
bx >
bx =
x<
x;
bx :
bx 9
x8
bx 7
bx 6
x5
bx 4
bx 3
x2
x1
bx 0
bx /
x.
bx -
bx ,
bx +
x*
b0 )
bx (
b0 '
0&
b0 %
0$
0#
b0 "
0!
$end
#50
0j
0`
0|
0C
02"
01"
0V
0Z
1!
#100
1`
1j
0!
1$
#150
b0 3
b0 G
0;
b0 0
b0 !"
b0 +
b0 ?
b0 -
b0 >
08
0*
b0 ]
0.
b0 6
b0 X
0<
0R
b0 [
b0 \
b0 W
b0 U
b0 S
b0 ^
b0 O
b0 h
0P
0T
0M
0q
b0 k
b0 o
b0 m
b0 l
0K
0g
b0 a
b0 e
b0 c
b0 b
b0 ."
b0 ;"
b0 D"
b0 L"
b0 T"
b0 \"
b0 ]"
b0 (
b0 F
b0 _
b0 /
b0 /"
b0 $"
b0 X"
0+"
0Z"
b0 W"
b0 ["
0Y"
b0 %"
b0 P"
0,"
0R"
b0 O"
b0 S"
0Q"
b0 &"
b0 H"
0-"
0J"
b0 G"
b0 K"
0I"
0)"
0C"
b0 ="
b0 A"
b0 ?"
b0 >"
0@"
b0 ("
b0 7"
0*"
09"
b0 6"
b0 :"
0""
0d"
b0 ^"
b0 b"
b0 `"
b0 _"
0a"
b0 D
b0 =
b0 @
b0 A
11
b0 u
b0 v
b0 x
b0 w
05
b0 4
b0 I
b0 {
b0 :
b0 H
b0 s
b0 7
b0 z
b0 ~
b0 ,
b0 }
b0 9
b0 t
02
0y
b10000 E
1!
#200
0B
08"
00"
0d
0n
0Y
b10000 E
1!
1$
#250
0!
#300
b10000 E
0`
0j
1!
0$
#350
0!
#400
b10000 E
1!
#450
0!
#500
b10000 E
1!
#550
0!
#600
1#
b10000 E
1!
b11111111 "
b11111111 '
b11111111 r
#650
0!
#700
1y
1|
0#
b10000 E
1!
#750
0!
#800
0y
0|
b1 x
b11111111 w
b10000 E
1!
#850
0!
#900
b10000 E
1!
#950
0!
#1000
1#
b10000 E
1!
b111000 "
b111000 '
b111000 r
#1050
0!
#1100
1y
1|
0#
b10000 E
1!
#1150
0!
#1200
0y
0|
b1 v
b10000 E
1!
#1250
0!
#1300
b10000 E
1!
#1350
0!
#1400
1#
b10000 E
1!
b1 "
b1 '
b1 r
#1450
0!
#1500
1y
1|
0#
b10000 E
1!
#1550
0!
#1600
0y
0|
b1 u
b10 x
15
b111 4
b111 I
b111 {
b0 v
b10000 E
1!
#1650
0!
#1700
1!
#1750
0!
#1800
1#
1!
#1850
0!
#1900
1y
1|
0#
1!
#1950
0!
#2000
0y
0|
b1 v
1!
#2050
0!
#2100
1!
#2150
0!
#2200
1#
1!
b0 "
b0 '
b0 r
#2250
0!
#2300
1y
1|
0#
1!
#2350
0!
#2400
b1 -
b1 >
0y
0|
b10 u
b1 9
b1 t
b0 v
1!
#2450
0!
#2500
1!
#2550
0!
#2600
1#
1!
b11 "
b11 '
b11 r
#2650
0!
#2700
1y
1|
0#
1!
#2750
0!
#2800
0y
0|
b1 v
1!
#2850
0!
#2900
1!
#2950
0!
#3000
1#
1!
b100 "
b100 '
b100 r
#3050
0!
#3100
1y
1|
0#
1!
#3150
0!
#3200
0y
0|
b10 v
1!
#3250
0!
#3300
1!
#3350
0!
#3400
1#
1!
b101 "
b101 '
b101 r
#3450
0!
#3500
1y
1|
0#
1!
#3550
0!
#3600
0y
0|
b11 v
1!
#3650
0!
#3700
1!
#3750
0!
#3800
1#
1!
b0 "
b0 '
b0 r
#3850
0!
#3900
1y
1|
0#
1!
#3950
0!
#4000
b1010000010000000011 +
b1010000010000000011 ?
0y
0|
b0 x
b0 u
b1010000010000000011 ,
b1010000010000000011 }
b0 v
1!
#4050
0!
#4100
1!
#4150
0!
#4200
1#
1!
#4250
0!
#4300
1y
1|
0#
1!
#4350
0!
#4400
1*
0y
0|
12
1!
#4450
0!
#4500
b0 +
b0 ?
b0 -
b0 >
0*
b1 D
1B
b0 ,
b0 }
b0 9
b0 t
01
02
1!
#4550
0!
#4600
0B
1!
#4650
0!
#4700
1!
#4750
0!
#4800
1!
#4850
0!
#4900
1!
#4950
0!
#5000
1!
#5050
0!
#5100
1#
1!
b11111111 "
b11111111 '
b11111111 r
#5150
0!
#5200
1y
1|
0#
1!
#5250
0!
#5300
0y
0|
b1 x
11
1!
#5350
0!
#5400
1!
#5450
0!
#5500
1#
1!
b111000 "
b111000 '
b111000 r
#5550
0!
#5600
1y
1|
0#
1!
#5650
0!
#5700
0y
0|
b1 v
1!
#5750
0!
#5800
1!
#5850
0!
#5900
1#
1!
b1 "
b1 '
b1 r
#5950
0!
#6000
1y
1|
0#
1!
#6050
0!
#6100
0y
0|
b1 u
b10 x
b0 v
1!
#6150
0!
#6200
1!
#6250
0!
#6300
1#
1!
b10 "
b10 '
b10 r
#6350
0!
#6400
1y
1|
0#
1!
#6450
0!
#6500
0y
0|
b1 v
1!
#6550
0!
#6600
1!
#6650
0!
#6700
1#
1!
b0 "
b0 '
b0 r
#6750
0!
#6800
1y
1|
0#
1!
#6850
0!
#6900
b10 -
b10 >
0y
0|
b10 u
b10 9
b10 t
b0 v
1!
#6950
0!
#7000
1!
#7050
0!
#7100
1#
1!
b11 "
b11 '
b11 r
#7150
0!
#7200
1y
1|
0#
1!
#7250
0!
#7300
0y
0|
b1 v
1!
#7350
0!
#7400
1!
#7450
0!
#7500
1#
1!
b100 "
b100 '
b100 r
#7550
0!
#7600
1y
1|
0#
1!
#7650
0!
#7700
0y
0|
b10 v
1!
#7750
0!
#7800
1!
#7850
0!
#7900
1#
1!
b0 "
b0 '
b0 r
#7950
0!
#8000
1y
1|
0#
1!
#8050
0!
#8100
0y
0|
b11 v
1!
#8150
0!
#8200
1!
#8250
0!
#8300
1#
1!
#8350
0!
#8400
1y
1|
0#
1!
#8450
0!
#8500
b10000000011 +
b10000000011 ?
0y
0|
b0 x
b0 u
b10000000011 ,
b10000000011 }
b0 v
1!
#8550
0!
#8600
1!
#8650
0!
#8700
1#
1!
#8750
0!
#8800
1y
1|
0#
1!
#8850
0!
#8900
1*
0y
0|
12
1!
#8950
0!
#9000
b0 +
b0 ?
b0 -
b0 >
0*
b10 D
1B
b0 ,
b0 }
b0 9
b0 t
01
02
1!
#9050
0!
#9100
0B
1!
#9150
0!
#9200
1!
#9250
0!
#9300
1!
#9350
0!
#9400
1!
#9450
0!
#9500
1!
#9550
0!
#9600
1#
1!
b11111111 "
b11111111 '
b11111111 r
#9650
0!
#9700
1y
1|
0#
1!
#9750
0!
#9800
0y
0|
b1 x
11
1!
#9850
0!
#9900
1!
#9950
0!
#10000
1#
1!
b111000 "
b111000 '
b111000 r
#10050
0!
#10100
1y
1|
0#
1!
#10150
0!
#10200
0y
0|
b1 v
1!
#10250
0!
#10300
1!
#10350
0!
#10400
1#
1!
b1 "
b1 '
b1 r
#10450
0!
#10500
1y
1|
0#
1!
#10550
0!
#10600
0y
0|
b1 u
b10 x
b0 v
1!
#10650
0!
#10700
1!
#10750
0!
#10800
1#
1!
b11 "
b11 '
b11 r
#10850
0!
#10900
1y
1|
0#
1!
#10950
0!
#11000
0y
0|
b1 v
1!
#11050
0!
#11100
1!
#11150
0!
#11200
1#
1!
b0 "
b0 '
b0 r
#11250
0!
#11300
1y
1|
0#
1!
#11350
0!
#11400
b11 -
b11 >
0y
0|
b10 u
b11 9
b11 t
b0 v
1!
#11450
0!
#11500
1!
#11550
0!
#11600
1#
1!
b11 "
b11 '
b11 r
#11650
0!
#11700
1y
1|
0#
1!
#11750
0!
#11800
0y
0|
b1 v
1!
#11850
0!
#11900
1!
#11950
0!
#12000
1#
1!
b100 "
b100 '
b100 r
#12050
0!
#12100
1y
1|
0#
1!
#12150
0!
#12200
0y
0|
b10 v
1!
#12250
0!
#12300
1!
#12350
0!
#12400
1#
1!
b1 "
b1 '
b1 r
#12450
0!
#12500
1y
1|
0#
1!
#12550
0!
#12600
0y
0|
b11 v
1!
#12650
0!
#12700
1!
#12750
0!
#12800
1#
1!
b0 "
b0 '
b0 r
#12850
0!
#12900
1y
1|
0#
1!
#12950
0!
#13000
b10000010000000011 +
b10000010000000011 ?
0y
0|
b0 x
b0 u
b10000010000000011 ,
b10000010000000011 }
b0 v
1!
#13050
0!
#13100
1!
#13150
0!
#13200
1#
1!
#13250
0!
#13300
1y
1|
0#
1!
#13350
0!
#13400
1*
0y
0|
12
1!
#13450
0!
#13500
b0 +
b0 ?
b0 -
b0 >
0*
b11 D
1B
b0 ,
b0 }
b0 9
b0 t
01
02
1!
#13550
0!
#13600
0B
1!
#13650
0!
#13700
1!
#13750
0!
#13800
1!
#13850
0!
#13900
1!
#13950
0!
#14000
1!
#14050
0!
#14100
1#
1!
b11111110 "
b11111110 '
b11111110 r
#14150
0!
#14200
1y
1|
0#
1!
#14250
0!
#14300
0y
0|
b1 x
b11111110 w
11
1!
#14350
0!
#14400
1!
#14450
0!
#14500
1#
1!
b111111 "
b111111 '
b111111 r
#14550
0!
#14600
1y
1|
0#
1!
#14650
0!
#14700
0y
0|
b1 v
1!
#14750
0!
#14800
1!
#14850
0!
#14900
1#
1!
b0 "
b0 '
b0 r
#14950
0!
#15000
1y
1|
0#
1!
#15050
0!
#15100
0y
0|
b10 u
b10 x
05
b111 7
b111 z
b111 ~
b0 v
1!
#15150
0!
#15200
b10000 E
1!
#15250
0!
#15300
1#
b10000 E
1!
b10101111 "
b10101111 '
b10101111 r
#15350
0!
#15400
1y
1|
0#
b10000 E
1!
#15450
0!
#15500
0y
0|
b1 v
b10000 E
1!
#15550
0!
#15600
b10000 E
1!
#15650
0!
#15700
1#
b10000 E
1!
b10 "
b10 '
b10 r
#15750
0!
#15800
1y
1|
0#
b10000 E
1!
#15850
0!
#15900
0y
0|
b10 v
b10000 E
1!
#15950
0!
#16000
b10000 E
1!
#16050
0!
#16100
1#
b10000 E
1!
b11 "
b11 '
b11 r
#16150
0!
#16200
1y
1|
0#
b10000 E
1!
#16250
0!
#16300
0y
0|
b11 v
b10000 E
1!
#16350
0!
#16400
b10000 E
1!
#16450
0!
#16500
1#
b10000 E
1!
b100 "
b100 '
b100 r
#16550
0!
#16600
1y
1|
0#
b10000 E
1!
#16650
0!
#16700
b100000000110000001010101111 0
b100000000110000001010101111 !"
0y
0|
b0 x
b0 u
b100000000110000001010101111 ,
b100000000110000001010101111 }
b0 v
b10000 E
1!
#16750
0!
#16800
b10000 E
1!
#16850
0!
#16900
1#
b10000 E
1!
b0 "
b0 '
b0 r
#16950
0!
#17000
1y
1|
0#
b10000 E
1!
#17050
0!
#17100
18
0y
0|
12
b10000 E
1!
#17150
0!
#17200
b0 0
b0 !"
08
10"
b100000000110000001010101111 ."
b100000000110000001010101111 ;"
b100000000110000001010101111 D"
b100000000110000001010101111 L"
b100000000110000001010101111 T"
b100000000110000001010101111 \"
b100000000110000001010101111 ]"
b0 ,
b0 }
01
02
b10000 E
1!
#17250
0!
#17300
00"
b10000 E
1!
#17350
0!
#17400
b10000 E
1!
#17450
0!
#17500
b10000 E
1!
#17550
0!
#17600
b10000 E
1!
#17650
0!
#17700
b10000 E
1!
#17750
0!
#17800
1#
b10000 E
1!
b11111110 "
b11111110 '
b11111110 r
#17850
0!
#17900
1y
1|
0#
b10000 E
1!
#17950
0!
#18000
0y
0|
b1 x
11
b10000 E
1!
#18050
0!
#18100
b10000 E
1!
#18150
0!
#18200
1#
b10000 E
1!
b1000 "
b1000 '
b1000 r
#18250
0!
#18300
1y
1|
0#
b10000 E
1!
#18350
0!
#18400
0y
0|
b1 v
b10000 E
1!
#18450
0!
#18500
b10000 E
1!
#18550
0!
#18600
1#
b10000 E
1!
b0 "
b0 '
b0 r
#18650
0!
#18700
1y
1|
0#
b10000 E
1!
#18750
0!
#18800
0y
0|
b10 u
b10 x
b1 4
b1 I
b1 {
b0 7
b0 z
b0 ~
b0 v
b10000 E
1!
#18850
0!
#18900
b10000 E
1!
#18950
0!
#19000
1#
b10000 E
1!
b10101111 "
b10101111 '
b10101111 r
#19050
0!
#19100
1y
1|
0#
b10000 E
1!
#19150
0!
#19200
0y
0|
b1 v
b10000 E
1!
#19250
0!
#19300
b10000 E
1!
#19350
0!
#19400
1#
b10000 E
1!
b10 "
b10 '
b10 r
#19450
0!
#19500
1y
1|
0#
b10000 E
1!
#19550
0!
#19600
0y
0|
b10 v
b10000 E
1!
#19650
0!
#19700
b10000 E
1!
#19750
0!
#19800
1#
b10000 E
1!
b101 "
b101 '
b101 r
#19850
0!
#19900
1y
1|
0#
b10000 E
1!
#19950
0!
#20000
0y
0|
b11 v
b10000 E
1!
#20050
0!
#20100
b10000 E
1!
#20150
0!
#20200
1#
b10000 E
1!
b100100 "
b100100 '
b100100 r
#20250
0!
#20300
1y
1|
0#
b10000 E
1!
#20350
0!
#20400
b100100000001010000001010101111 3
b100100000001010000001010101111 G
0y
0|
b0 x
b0 u
b100100000001010000001010101111 ,
b100100000001010000001010101111 }
b0 v
b10000 E
1!
#20450
0!
#20500
b10000 E
1!
#20550
0!
#20600
1#
b10000 E
1!
b0 "
b0 '
b0 r
#20650
0!
#20700
1y
1|
0#
b10000 E
1!
#20750
0!
#20800
1;
0y
0|
12
b10000 E
1!
#20850
0!
#20900
b0 3
b0 G
0;
b100100000001010000001010101111 O
b100100000001010000001010101111 h
1Y
b0 ,
b0 }
01
02
b10000 E
1!
#20950
0!
#21000
0Y
b10000 E
1!
#21050
0!
#21100
b10000 E
1!
#21150
0!
#21200
b10000 E
1!
#21250
0!
#21300
b10000 E
1!
#21350
0!
#21400
b10000 E
1!
#21450
0!
#21500
1#
b10000 E
1!
b11111110 "
b11111110 '
b11111110 r
#21550
0!
#21600
1y
1|
0#
b10000 E
1!
#21650
0!
#21700
0y
0|
b1 x
11
b10000 E
1!
#21750
0!
#21800
b10000 E
1!
#21850
0!
#21900
1#
b10000 E
1!
b10000 "
b10000 '
b10000 r
#21950
0!
#22000
1y
1|
0#
b10000 E
1!
#22050
0!
#22100
0y
0|
b1 v
b10000 E
1!
#22150
0!
#22200
b10000 E
1!
#22250
0!
#22300
1#
b10000 E
1!
b0 "
b0 '
b0 r
#22350
0!
#22400
1y
1|
0#
b10000 E
1!
#22450
0!
#22500
0y
0|
b10 u
b10 x
b10 4
b10 I
b10 {
b0 v
b10000 E
1!
#22550
0!
#22600
b10000 E
1!
#22650
0!
#22700
1#
b10000 E
1!
b10101111 "
b10101111 '
b10101111 r
#22750
0!
#22800
1y
1|
0#
b10000 E
1!
#22850
0!
#22900
0y
0|
b1 v
b10000 E
1!
#22950
0!
#23000
b10000 E
1!
#23050
0!
#23100
1#
b10000 E
1!
b100010 "
b100010 '
b100010 r
#23150
0!
#23200
1y
1|
0#
b10000 E
1!
#23250
0!
#23300
0y
0|
b10 v
b10000 E
1!
#23350
0!
#23400
b10000 E
1!
#23450
0!
#23500
1#
b10000 E
1!
b11 "
b11 '
b11 r
#23550
0!
#23600
1y
1|
0#
b10000 E
1!
#23650
0!
#23700
0y
0|
b11 v
b10000 E
1!
#23750
0!
#23800
b10000 E
1!
#23850
0!
#23900
1#
b10000 E
1!
b100100 "
b100100 '
b100100 r
#23950
0!
#24000
1y
1|
0#
b10000 E
1!
#24050
0!
#24100
b100100000000110010001010101111 3
b100100000000110010001010101111 G
0y
0|
b0 x
b0 u
b100100000000110010001010101111 ,
b100100000000110010001010101111 }
b0 v
b10000 E
1!
#24150
0!
#24200
b10000 E
1!
#24250
0!
#24300
1#
b10000 E
1!
b0 "
b0 '
b0 r
#24350
0!
#24400
1y
1|
0#
b10000 E
1!
#24450
0!
#24500
1;
0y
0|
12
b10000 E
1!
#24550
0!
#24600
b0 3
b0 G
0;
b100100000000110010001010101111 S
b100100000000110010001010101111 ^
1Y
b0 ,
b0 }
01
02
b10000 E
1!
#24650
0!
#24700
0Y
b10000 E
1!
#24750
0!
#24800
b10000 E
1!
#24850
0!
#24900
b10000 E
1!
#24950
0!
#25000
b10000 E
1!
#25050
0!
#25100
b10000 E
1!
#25150
0!
#25200
1#
b10000 E
1!
b11111110 "
b11111110 '
b11111110 r
#25250
0!
#25300
1y
1|
0#
b10000 E
1!
#25350
0!
#25400
0y
0|
b1 x
11
b10000 E
1!
#25450
0!
#25500
b10000 E
1!
#25550
0!
#25600
1#
b10000 E
1!
b11000 "
b11000 '
b11000 r
#25650
0!
#25700
1y
1|
0#
b10000 E
1!
#25750
0!
#25800
0y
0|
b1 v
b10000 E
1!
#25850
0!
#25900
b10000 E
1!
#25950
0!
#26000
1#
b10000 E
1!
b0 "
b0 '
b0 r
#26050
0!
#26100
1y
1|
0#
b10000 E
1!
#26150
0!
#26200
0y
0|
b10 u
b10 x
b11 4
b11 I
b11 {
b0 v
b10000 E
1!
#26250
0!
#26300
b10000 E
1!
#26350
0!
#26400
1#
b10000 E
1!
b10101111 "
b10101111 '
b10101111 r
#26450
0!
#26500
1y
1|
0#
b10000 E
1!
#26550
0!
#26600
0y
0|
b1 v
b10000 E
1!
#26650
0!
#26700
b10000 E
1!
#26750
0!
#26800
1#
b10000 E
1!
b100010 "
b100010 '
b100010 r
#26850
0!
#26900
1y
1|
0#
b10000 E
1!
#26950
0!
#27000
0y
0|
b10 v
b10000 E
1!
#27050
0!
#27100
b10000 E
1!
#27150
0!
#27200
1#
b10000 E
1!
b11 "
b11 '
b11 r
#27250
0!
#27300
1y
1|
0#
b10000 E
1!
#27350
0!
#27400
0y
0|
b11 v
b10000 E
1!
#27450
0!
#27500
b10000 E
1!
#27550
0!
#27600
1#
b10000 E
1!
b100100 "
b100100 '
b100100 r
#27650
0!
#27700
1y
1|
0#
b10000 E
1!
#27750
0!
#27800
b100100000000110010001010101111 3
b100100000000110010001010101111 G
0y
0|
b0 x
b0 u
b100100000000110010001010101111 ,
b100100000000110010001010101111 }
b0 v
b10000 E
1!
#27850
0!
#27900
b10000 E
1!
#27950
0!
#28000
1#
b10000 E
1!
b0 "
b0 '
b0 r
#28050
0!
#28100
1y
1|
0#
b10000 E
1!
#28150
0!
#28200
1;
0y
0|
12
b10000 E
1!
#28250
0!
#28300
b0 3
b0 G
0;
b100100000000110010001010101111 U
1Y
b0 ,
b0 }
01
02
b10000 E
1!
#28350
0!
#28400
0Y
b10000 E
1!
#28450
0!
#28500
b10000 E
1!
#28550
0!
#28600
b10000 E
1!
#28650
0!
#28700
b10000 E
1!
#28750
0!
#28800
b10000 E
1!
#28850
0!
#28900
1#
b10000 E
1!
b11111110 "
b11111110 '
b11111110 r
#28950
0!
#29000
1y
1|
0#
b10000 E
1!
#29050
0!
#29100
0y
0|
b1 x
11
b10000 E
1!
#29150
0!
#29200
b10000 E
1!
#29250
0!
#29300
1#
b10000 E
1!
b100000 "
b100000 '
b100000 r
#29350
0!
#29400
1y
1|
0#
b10000 E
1!
#29450
0!
#29500
0y
0|
b1 v
b10000 E
1!
#29550
0!
#29600
b10000 E
1!
#29650
0!
#29700
1#
b10000 E
1!
b0 "
b0 '
b0 r
#29750
0!
#29800
1y
1|
0#
b10000 E
1!
#29850
0!
#29900
0y
0|
b10 u
b10 x
b100 4
b100 I
b100 {
b0 v
b10000 E
1!
#29950
0!
#30000
b10000 E
1!
#30050
0!
#30100
1#
b10000 E
1!
b10000111 "
b10000111 '
b10000111 r
#30150
0!
#30200
1y
1|
0#
b10000 E
1!
#30250
0!
#30300
0y
0|
b1 v
b10000 E
1!
#30350
0!
#30400
b10000 E
1!
#30450
0!
#30500
1#
b10000 E
1!
b10 "
b10 '
b10 r
#30550
0!
#30600
1y
1|
0#
b10000 E
1!
#30650
0!
#30700
0y
0|
b10 v
b10000 E
1!
#30750
0!
#30800
b10000 E
1!
#30850
0!
#30900
1#
b10000 E
1!
b11 "
b11 '
b11 r
#30950
0!
#31000
1y
1|
0#
b10000 E
1!
#31050
0!
#31100
0y
0|
b11 v
b10000 E
1!
#31150
0!
#31200
b10000 E
1!
#31250
0!
#31300
1#
b10000 E
1!
b100100 "
b100100 '
b100100 r
#31350
0!
#31400
1y
1|
0#
b10000 E
1!
#31450
0!
#31500
b100100000000110000001010000111 3
b100100000000110000001010000111 G
0y
0|
b0 x
b0 u
b100100000000110000001010000111 ,
b100100000000110000001010000111 }
b0 v
b10000 E
1!
#31550
0!
#31600
b10000 E
1!
#31650
0!
#31700
1#
b10000 E
1!
b0 "
b0 '
b0 r
#31750
0!
#31800
1y
1|
0#
b10000 E
1!
#31850
0!
#31900
1;
0y
0|
12
b10000 E
1!
